Project 2 - Untidy Data
…
finalStocks <- as_tibble(finalStocks)

# remove records with null Sector
finalStocks <- finalStocks[!is.na(finalStocks$Sector),]

highAndLow <- finalStocks %>%
  group_by(Sector) %>%
  summarize(Mean_Low_Price = mean(Low.Price, na.rm = TRUE),
            Mean_High_Price = mean(High.Price, na.rm = TRUE)) %>%
  arrange(desc(Mean_High_Price))

highAndLow

## # A tibble: 38 x 3
##    Sector                          Mean_Low_Price Mean_High_Price
##    <fct>                                    <dbl>           <dbl>
##  1 AUTO-TYRES AND TUBES                    12246.          12517.
##  2 AUTO-AUTOMOBILES AND AUTO PARTS          1651.           1732.
##  3 DIVERSIFIED                              1673.           1710.
##  4 FMCG                                     1660.           1695.
##  5 AUTO-AUTO ANCL AND COMPONENTS            1377.           1413.
##  6 CEMENTS                                  1324.           1380.
##  7 AIRLINES                                  800.            838.
##  8 FINANCIAL SERVICES-NBFC                   781.            804.
##  9 PHARMA                                    745.            761.
## 10 ENERGY-OIL & GAS                          668.            679.
## # ... with 28 more rows
…
Now that we have the columns that we want, lets apply the tidy principle of transforming our data so that the country names are in 1 variable. This will allow us to more easily answer the questions from the discussion post. 

unemploymentData <- unemploymentData %>%
  gather(COUNTRY, UNEMPLOYMENT_RATE, -YEAR)

The data is finally cleaned up and ready for analysis. Lets tackle the first question: For the five year period from 2011 to 2015, whats the average annual unemployment rate of each country? 

avgUnemplRate <- unemploymentData %>% 
  group_by(COUNTRY) %>%
  summarise(AVERAGE_UNEMPLOYMENT_RATE = mean(UNEMPLOYMENT_RATE)) %>%
  arrange(AVERAGE_UNEMPLOYMENT_RATE)

avgUnemplRate

## # A tibble: 68 x 2
##    COUNTRY              AVERAGE_UNEMPLOYMENT_RATE
##    <chr>                                    <dbl>
##  1 Belarus                                  0.650
##  2 Thailand                                 0.751
##  3 Singapore                                1.94 
##  4 Vietnam                                  2.16 
##  5 Switzerland                              3.03 
##  6 Hong.Kong.SAR..China                     3.34 
##  7 Korea..Rep.                              3.36 
##  8 Norway                                   3.72 
##  9 Bahrain                                  3.86 
## 10 Japan                                    3.98 
## # ... with 58 more rows
…
